Modeling car Insurance accidents and cost of accidents
…
Expected claim cost

Together, these results provide a data-driven assessment of driver risk and expected financial exposure for the insurer.

Data exploration

Code

train_missing_rows <- train %>% 
  filter(if_any(everything(), is.na))

train_missing_rows

# A tibble: 2,116 × 26
   INDEX TARGET_FLAG TARGET_AMT KIDSDRIV   AGE HOMEKIDS   YOJ INCOME   PARENT1
   <dbl>       <dbl>      <dbl>    <dbl> <dbl>    <dbl> <dbl> <chr>    <chr>  
 1     5           0          0        0    51        0    14 <NA>     No     
 2     6           0          0        0    50        0    NA $114,986 No     
 3     8           0          0        0    54        0    NA $18,755  No     
 4    11           1       4021        1    37        2    NA $107,961 No     
 5    17           1       1267        0    53        0    11 $130,795 No     
 6    26           1       3627        0    43        0    13 $37,214  No     
 7    36           0          0        0    40        2     0 <NA>     No     
 8    41           0          0        0    41        0     7 $92,842  No     
 9    46           0          0        0    43        2    17 $145,353 No     
10    55           0          0        0    47        0     8 $18,444  No     
# ℹ 2,106 more rows
# ℹ 17 more variables: HOME_VAL <chr>, MSTATUS <chr>, SEX <chr>,
#   EDUCATION <chr>, JOB <chr>, TRAVTIME <dbl>, CAR_USE <chr>, BLUEBOOK <chr>,
#   TIF <dbl>, CAR_TYPE <chr>, RED_CAR <chr>, OLDCLAIM <chr>, CLM_FREQ <dbl>,
#   REVOKED <chr>, MVR_PTS <dbl>, CAR_AGE <dbl>, URBANICITY <chr>
…
